[
    {
        "user_id" : 1,
        "match_duration_in_minutes" : 5,
        "match_score" : 90
    },
    {
        "user_id" : 1,
        "match_duration_in_minutes" : 7,
        "match_score" : 83
    },
    {
        "user_id" : 1,
        "match_duration_in_minutes" : 9,
        "match_score" : 98
    },
    {
        "user_id" : 2,
        "match_duration_in_minutes" : 5,
        "match_score" : 73
    },
    {
        "user_id" : 2,
        "match_duration_in_minutes" : 5,
        "match_score" : 85
    },
    {
        "user_id" : 3,
        "match_duration_in_minutes" : 5,
        "match_score" : 65
    },
    {
        "user_id" : 3,
        "match_duration_in_minutes" : 5,
        "match_score" : 34
    },
    {
        "user_id" : 4,
        "match_duration_in_minutes" : 5,
        "match_score" : 80
    },
    {
        "user_id" : 5,
        "match_duration_in_minutes" : 5,
        "match_score" : 74
    },
    {
        "user_id" : 5,
        "match_duration_in_minutes" : 5,
        "match_score" : 56
    }
]